530284 690338 509
870199 909616 445
913308 962445 507
775805 856790 525
630423 676545 442
137018 545162 470
298734 452740 449
646300 909276 525
357491 690112 509
426295 587754 470
360745 560096 470
700621 840186 525
467756 600263 470
640304 919834 525
439948 662610 509
165084 271348 443
96673 830431 509
942915 974070 458
236057 528480 470
388631 751775 509
420896 594847 470
269616 845425 525
938313 941511 507
520007 639473 509
769206 967646 525
320951 634613 509
249453 303692 407
712289 900860 525
710515 811809 468
303714 519025 470
27308 210308 383
1622 831874 509
210056 775682 509
221358 838326 525
497758 562597 470
884467 986757 507
786423 958373 525
814471 978203 525
622328 971675 525
815896 817811 344
239972 992877 525
601706 802682 509
214208 372780 443
535975 622584 452
75480 414599 449
166797 868925 525
324973 964151 525
853637 926341 476
330372 610825 470
739870 772984 468
292210 364528 441
802209 888475 525
154005 653462 509
814782 902499 525
349598 562596 470
370239 599852 470
761969 862831 525
1279 12237 268
152006 846475 525
481486 783936 509
97532 961274 525
620183 945890 525
207190 635080 509
183071 480730 449
753388 885750 525
503106 836629 509
435240 893526 525
754291 879065 525
695290 968158 525
765827 850129 525
844219 969575 507
11986 440309 449
371317 467379 449
42267 397329 443
443194 570397 470
863340 999216 507
495581 577787 470
173415 974047 525
889790 904609 401
894543 979572 507
572733 916865 525
87277 521737 470
110201 299655 443
642554 898147 525
290151 483183 449
731424 837295 468
560194 942528 525
886539 918834 476
35909 957474 525
717876 880583 525
545217 775143 509
671437 917081 525
159591 552695 470
39465 848637 525
275502 358996 441
213203 777199 509
173325 242151 443
259787 680506 509
295806 379359 441
889951 938445 476
395181 978344 525
854013 865850 419
6052 922237 525
575905 883803 525
603891 745682 509
811921 860648 525
260361 876387 525
740933 918621 525
978901 984535 427
685239 881015 525
13407 115114 354
959811 961174 414
232511 818613 509
248073 610995 470
31551 327936 443
718896 892217 525
58519 499715 449
501885 750800 509
898232 938791 476
838350 936907 476
99233 893122 525
730915 826784 468
354264 740066 509
535518 873788 525
37217 160434 383
490839 615698 470
497753 851926 525
369412 882423 525
434199 827011 509
985001 999508 440
490630 565441 470
851961 971267 507
170223 595778 470
752109 805500 468
306203 458237 449
42863 633372 509
843374 992358 507
123169 887722 525
97884 558536 470
720457 853780 525
251969 426089 449
796757 991356 525
234012 670465 509
752020 849473 525
895271 988859 507
187696 261942 443
924987 961259 507
756005 966515 525
855287 897016 445
801342 894869 525
116028 180090 383
61540 164981 383
403945 561598 470
675440 913513 525
802536 995086 525
357611 611304 470
818458 836622 450
733660 998745 525
936718 945707 507
678828 774011 504
687218 890248 525
552660 613526 434
353266 413766 449
660875 756167 504
668706 726963 504
959694 967753 414
288345 620332 470
742764 833535 468
46931 681608 509
965500 991574 458
258044 558266 470
504293 720111 509
551502 932932 525
653674 711644 504
431199 476987 444
973467 999911 440
235118 665012 509
491826 901104 525
800059 966224 525
135955 669839 509
807003 811410 406
595968 804172 509
128185 600084 470
786800 999981 525
232316 365741 441
400756 750853 509
218383 970122 525
517329 900703 525
981637 994775 427
201087 843385 525
80031 139438 354
881959 890295 445
866379 907460 445
703192 759423 504
167907 462607 449
906775 989418 507
161784 677539 509
147262 279328 443
263714 712602 509
904279 921305 476
468687 533844 470
468391 942530 525
959775 962006 414
137289 218356 386
850051 957383 507
124120 125996 318
543407 682273 509
816148 889986 525
242958 603144 470
771430 875715 525
697399 824865 504
304082 952479 525
38776 748850 509
490573 911514 525
355991 950047 525
832160 924940 525
24703 920198 525
273553 945557 525
359291 552880 470
75292 430317 449
164703 314835 443
92577 250941 443
496122 802149 509
585829 635221 509
398241 792474 509
941114 998659 458
816549 995980 525
624214 649593 509
265246 584784 470
321381 846460 525
285823 367839 441
822794 939992 525
564283 980562 525
802803 853750 525
239534 916077 525
480956 551110 470
462475 591578 470
676326 758301 504
188854 854234 525
980563 988483 427
954689 954791 215
886387 897351 445
266127 805914 509
8879 990993 525
933152 977314 507
923458 933301 476
372520 969067 525
992555 992624 290
212276 300093 443
826715 872363 525
